{
  "type": "service_account",
  "project_id": "tiktokbackend-7c202",
  "private_key_id": "f2a1b8421742c7d7223101a2093a9d9b03af5c14",
  "private_key": "-----BEGIN PRIVATE KEY-----\nMIIEvQIBADANBgkqhkiG9w0BAQEFAASCBKcwggSjAgEAAoIBAQC5llreKAE/LtfN\nzMZbaE44LQwP2PU1zt+QGbhv61R8jYWofji42zJquJkjIOe5H5YQOFNxlKEQsE5k\nqwo4/Avcdk3uGhtV0srW6WFhA7BPFldIMfabIKXSDUPDp6ujL+P30RGZw2t4rfDJ\n2ww2C2T9LChZcPUnntP/xVmILQLEqru2JzquLZPjWPHdEgeb9bY7jZYyhJjBMwDt\nC+CIjt0O3fsadcvsXZ5E2M4T4/PlusuHCDEDahtUCT5KlaN9sVqsVRvVQvYCOS9f\n/Hv9WHdbZOS0B5cqyNgfDgO/B236ElXCjiIrh+qIkv7KeISPM6PMA5LaWhUxOb/S\nDYywDSZTAgMBAAECggEAASAp1e4dL9Jraaqjy1sjGlEfoRr6RcTG81tMlJUzUnwT\nQvXdBzYBJMeQ2jcxYJyR7vBAhVBW98ByAUdOTREuSzyGdXrADrG0HECXIB0DHT+v\n8NaovcEhcFg3QIEMV/WK5u5kMnAOf1Fiw/6poMxJ5QU3C2/VdNOQSp1aUSqguSuj\nSe7W01oAkZgYjuD1EZ/92Z1RquHCaA+hnfPCFkM+byDj2FK6IGgp3MUGW1KN+Ao/\ncw/BQ1VV3tS4rA10wjd/Mxj85matmsHK6KnkzPoBWiZXRZS8wTspDrKFthJF8L4k\nyny17ydCQnhnr0mwdDl8PUHo1neieMN+c5KGpOvMNQKBgQDaMMzRAiFYyomI64tk\n5ewWlLKFRCe2KDd1+Jkmjm+GxO9Pe9sDMhqtu76qbovmBRkPuk9EUxZCjLkv6NZH\nWFxKroqL51VjKNsZDgvbHm+O80eHaabcZbk+iigYsRZXRhic/hMCtw/y/z+Lv/ur\nX+0KoqP4407f1MGcqVEo5n7k5wKBgQDZvzunsplS3SG/QldVYAV0HJp7Y0zrusUC\nC7alWtXKnhdC1AMmBmRBZ10JVtR8RFDqStHVIACi5TNlJhe2hSCg1hAeVJmGVRYr\n7E+lI/II1II0cfrB39e0uOmE6ofIcZYyudp9P4jEgseYl5w/9lGR68XwqmwsaQzE\nxEhTZhdZtQKBgQCjagE8WNgY5Dh179QK0ZksoFnELfOAHkbLeFFb6znkOgLyCNVT\nY2dPz1lR1FG7CP5oJSXRClmVpkfcdgpmjOsyk974QV5WUfcmoLqIdhcffV2JMbvj\nPdyr1lWJiLguzTUJ/9DFK84qNLmnNTaMd9/VI1Kjybr9MR+A8d7zPw6y6QKBgFMo\nsprAHchExa+qoXnsmwiWJ/V5nhXlFXpLiOyrvTyNleqi17T8+er0k9aOP8ZZvOFN\nw8d2Wmfbyv4VRzcgrq5eMney7ZMdCcOqk1xJVxVCO5vV7+N9Hn9Zo21suIC3yJoE\n2sm8qvoJzDqdpEHVS5/EAKuCGp/3WrYHFGwtcDuFAoGAXTiKfayaTI9ny+QrEPPd\n4aGJDmPNgJfH1t7swZ44XZAtwxLzrVTXbzfkg0/aNauH9W1+SOXOZo/zr3uBWnCY\n2IxD4ZuquV7uHvYPZ67m+n3ig20+vKu9sBGN73Ud2M35TxrU92S2Arl4E2qWbbt8\nnkdiYU+/OqNnvCvdD1AtIWM=\n-----END PRIVATE KEY-----\n",
  "client_email": "firebase-adminsdk-bo7i8@tiktokbackend-7c202.iam.gserviceaccount.com",
  "client_id": "106611995145509943896",
  "auth_uri": "https://accounts.google.com/o/oauth2/auth",
  "token_uri": "https://oauth2.googleapis.com/token",
  "auth_provider_x509_cert_url": "https://www.googleapis.com/oauth2/v1/certs",
  "client_x509_cert_url": "https://www.googleapis.com/robot/v1/metadata/x509/firebase-adminsdk-bo7i8%40tiktokbackend-7c202.iam.gserviceaccount.com",
  "universe_domain": "googleapis.com"
}
